078373_Stats2_Report
…
Three books were used for the sentiment analysis with the common theme of the British Navy. These were The British Navy Book by Cyril Field, The British Navy in Battle by Arthur Joseph Hungerford Pollen and Flag and Fleet: How the British Navy Won the Freedom of the Seas by William Wood. The books were read in and any unnecessary introductory lines were removed. The texts were then collated in a corpus and any stop words removed. This allowed them to analysed.

Word Count and Frequency

The British Navy Book has the most words (41,909) followed by The British Navy in Battle (40,616) while Flag and Fleet has the least (32,834). This is reflected in the unique words used: The British Navy Book uses 9,901 unique words; The British Navy in Battle uses 7,182; and Flag and Fleet uses 6,803.

## # A tibble: 3 x 2
##   source     n
##   <chr>  <int>
## 1 Battle 40616
## 2 Flag   32834
## 3 Navy   41901

## # A tibble: 7,182 x 2
##    word         n
##    <chr>    <int>
##  1 fleet      380
##  2 battle     351
##  3 german     350
##  4 action     335
##  5 ships      328
##  6 enemy      324
##  7 sea        291
##  8 british    288
##  9 war        284
## 10 cruisers   263
## # ... with 7,172 more rows

## # A tibble: 9,901 x 2
##    word       n
##    <chr>  <int>
##  1 ships    416
##  2 ship     366
##  3 guns     330
##  4 time     250
##  5 war      202
##  6 fire     186
##  7 naval    184
##  8 sea      175
##  9 gun      166
## 10 german   164
## # ... with 9,891 more rows

## # A tibble: 6,803 x 2
##    word        n
##    <chr>   <int>
##  1 british   502
##  2 sea       441
##  3 war       311
##  4 fleet     271
##  5 french    221
##  6 navy      198
##  7 german    181
##  8 ships     171
##  9 germans   156
## 10 english   154
## # ... with 6,793 more rows
…
Word importance weighting

## # A tibble: 23,886 x 6
## # Groups:   source [3]
##    source word              n       tf   idf  tf_idf
##    <chr>  <chr>         <int>    <dbl> <dbl>   <dbl>
##  1 Battle enemys         108 0.00266  1.10  0.00292
##  2 Battle _koenigsberg_    57 0.00140  1.10  0.00154
##  3 Navy   breech           49 0.00117  1.10  0.00128
##  4 Battle oclock          47 0.00116  1.10  0.00127
##  5 Battle beattys         44 0.00108  1.10  0.00119
##  6 Flag   spaniards        96 0.00292  0.405 0.00119
##  7 Flag   drake            89 0.00271  0.405 0.00110
##  8 Flag   spain            86 0.00262  0.405 0.00106
##  9 Flag   celts            30 0.000914 1.10  0.00100
## 10 Flag   norsemen         30 0.000914 1.10  0.00100
## # ... with 23,876 more rows
…
